cthackathon\utils\Config.class
cthackathon\web\base\WebBase.class
cthackathon\web\factory\Page.class
cthackathon\base\exceptions\InvalidBrowserNameException.class
cthackathon\enums\PagesFactory$1.class
cthackathon\web\pages\HomePage.class
cthackathon\base\SeleniumBase.class
cthackathon\utils\PropertyUtils.class
cthackathon\web\factory\Pages.class
cthackathon\web\base\Constants.class
cthackathon\enums\PagesFactory.class
cthackathon\web\tests\HomePageTests.class
